{
    "KPlugin": {
        "BugReportUrl": "https://bugs.kde.org/enter_bug.cgi?product=systemsettings&component=kcm_networkmanagement",
        "Description": "Edit your Network Connections",
        "Description[ar]": "حرّر اتّصالاتك الشّبكيّة",
        "Description[az]": "Şəbəkə bağlantılarınıza düzəliş edin",
        "Description[bg]": "Управление на мрежови устройства и връзки",
        "Description[ca@valencia]": "Edita les connexions de xarxa",
        "Description[ca]": "Edita les connexions de xarxa",
        "Description[cs]": "Upravit vaše síťová spojení",
        "Description[en_GB]": "Edit your Network Connections",
        "Description[es]": "Editar las conexiones de red",
        "Description[eu]": "Editatu zure sareko konexioak",
        "Description[fi]": "Verkkoyhteyksien muokkaus",
        "Description[fr]": "Modifier vos connexions réseau",
        "Description[hu]": "A hálózati kapcsolatok szerkesztése",
        "Description[ia]": "Modifica tu Connexiones de Rete",
        "Description[is]": "Sýslaðu með nettengingar",
        "Description[it]": "Modifica le tue connessioni di rete",
        "Description[ka]": "ქსელური შეერთებების ჩასწორება",
        "Description[ko]": "네트워크 연결 편집",
        "Description[nl]": "Bewerk uw netwerkverbindingen",
        "Description[nn]": "Rediger nettverkstilkoplingar",
        "Description[pl]": "Edytuj swoje połączenia sieciowe",
        "Description[pt]": "Editar as Suas Ligações de Rede",
        "Description[pt_BR]": "Edite suas conexões de rede",
        "Description[ro]": "Modificați conexiunile de rețea",
        "Description[ru]": "Настройка сетевых соединений",
        "Description[sk]": "Upravuje vaše sieťové pripojenia",
        "Description[sl]": "Uredi vaše omrežne povezave",
        "Description[sv]": "Redigera dina nätverksanslutningar",
        "Description[ta]": "உங்கள் பிணைய இணைப்புகளை திருத்துங்கள்",
        "Description[tr]": "Ağ Bağlantılarınızı düzenleyin",
        "Description[uk]": "Редагування ваших записів з’єднань з мережею",
        "Description[x-test]": "xxEdit your Network Connectionsxx",
        "Description[zh_CN]": "编辑您的网络连接",
        "Description[zh_TW]": "編輯您的網路連線",
        "Icon": "preferences-system-network",
        "Name": "Connections",
        "Name[ar]": "الاتّصالات",
        "Name[az]": "Bağlantılar",
        "Name[bg]": "Връзки",
        "Name[ca@valencia]": "Connexions",
        "Name[ca]": "Connexions",
        "Name[cs]": "Spojení",
        "Name[da]": "Forbindelser",
        "Name[de]": "Verbindungen",
        "Name[el]": "Συνδέσεις",
        "Name[en_GB]": "Connections",
        "Name[es]": "Conexiones",
        "Name[et]": "Ühendused",
        "Name[eu]": "Konexioak",
        "Name[fi]": "Yhteydet",
        "Name[fr]": "Connexions",
        "Name[gl]": "Conexións",
        "Name[he]": "חיבורים",
        "Name[hsb]": "Zwiski",
        "Name[hu]": "Kapcsolatok",
        "Name[ia]": "Connexiones",
        "Name[id]": "Koneksi",
        "Name[is]": "Tengingar",
        "Name[it]": "Connessioni",
        "Name[ja]": "接続",
        "Name[ka]": "ქსელი",
        "Name[ko]": "연결",
        "Name[lt]": "Ryšiai",
        "Name[ml]": "ബന്ധങ്ങള്‍",
        "Name[nl]": "Verbindingen",
        "Name[nn]": "Tilkoplingar",
        "Name[pa]": "ਕਨੈਕਸ਼ਨ",
        "Name[pl]": "Połączenia",
        "Name[pt]": "Ligações",
        "Name[pt_BR]": "Conexões",
        "Name[ro]": "Conexiuni",
        "Name[ru]": "Соединения",
        "Name[sk]": "Pripojenia",
        "Name[sl]": "Povezave",
        "Name[sr@ijekavian]": "Везе",
        "Name[sr@ijekavianlatin]": "Veze",
        "Name[sr@latin]": "Veze",
        "Name[sr]": "Везе",
        "Name[sv]": "Anslutningar",
        "Name[ta]": "இணைப்புகள்",
        "Name[tg]": "Пайвастҳо",
        "Name[tr]": "Bağlantılar",
        "Name[uk]": "З’єднання",
        "Name[x-test]": "xxConnectionsxx",
        "Name[zh_CN]": "连接",
        "Name[zh_TW]": "連線",
        "ServiceTypes": [
            "KCModule"
        ]
    },
    "X-KDE-Keywords": "networks,wifi,wi-fi,ethernet,mobile,cdma,gsm,lte,wimax,apn,carrier,2g,3g,4g,5g,5ge,broadband,internet,traffic,connections,websites,web,DSL,infiniband,wired,wireless,bssid,ipv4,ipv6,mac address,ip,access point,dns,gateway,wep,leap,wpa,wpa2,wpa3,dhcp,shared network,private network,public network,vpn,openvpn,wireguard,fortinet,juniper,l2tp,pptp,sstp,ssh,iodine,ipsec,anyconnect,openconnect",
    "X-KDE-Keywords[az]": "networks,wifi,wi-fi,ethernet,mobile,cdma,gsm,lte,wimax,apn,carrier,2g,3g,4g,5g,5ge,broadband,internet,traffic,connections,websites,web,DSL,infiniband,wired,wireless,bssid,ipv4,ipv6,mac address,ip,access point,dns,gateway,wep,leap,wpa,wpa2,wpa3,dhcp,shared network,private network,public network,vpn,openvpn,wireguard,fortinet,juniper,l2tp,pptp,sstp,ssh,iodine,ipsec,anyconnect,openconnect,şəbəkə,bağlantılar,veb-səhifələr,sonsuz,simli,simsiz,mac ünvanlar,giriş nöqtəsi,şəbəkə keçidi,paylaşılan şəbəkə,fərdi şəbəkə,ümumi şəbəkə",
    "X-KDE-Keywords[ca@valencia]": "xarxes,wifi,wi-fi,ethernet,mòbil,cdma,gsm,lte,wimax,apn,operador,2g,3g,4g,5g,5ge,banda ampla,internet,trànsit,connexions,llocs web,web,DSL,infiniband,amb fil,sense fil,bssid,ipv4,ipv6,adreça mac,ip,punt d'accés,dns,encaminador,wep,leap,wpa,wpa2,wpa3,dhcp,xarxa compartida,xarxa privada,xarxa pública,vpn,openvpn,wireguard,fortinet,juniper,l2tp,pptp,sstp,ssh,iodine,ipsec,anyconnect,openconnect",
    "X-KDE-Keywords[ca]": "xarxes,wifi,wi-fi,ethernet,mòbil,cdma,gsm,lte,wimax,apn,operador,2g,3g,4g,5g,5ge,banda ampla,internet,trànsit,connexions,llocs web,web,DSL,infiniband,amb fil,sense fil,bssid,ipv4,ipv6,adreça mac,ip,punt d'accés,dns,encaminador,wep,leap,wpa,wpa2,wpa3,dhcp,xarxa compartida,xarxa privada,xarxa pública,vpn,openvpn,wireguard,fortinet,juniper,l2tp,pptp,sstp,ssh,iodine,ipsec,anyconnect,openconnect",
    "X-KDE-Keywords[en_GB]": "networks,wifi,wi-fi,ethernet,mobile,cdma,gsm,lte,wimax,apn,carrier,2g,3g,4g,5g,5ge,broadband,internet,traffic,connections,websites,web,DSL,infiniband,wired,wireless,bssid,ipv4,ipv6,mac address,ip,access point,dns,gateway,wep,leap,wpa,wpa2,wpa3,dhcp,shared network,private network,public network,vpn,openvpn,wireguard,fortinet,juniper,l2tp,pptp,sstp,ssh,iodine,ipsec,anyconnect,openconnect",
    "X-KDE-Keywords[es]": "redes,wifi,wi-fi,ethernet,móvil,cdma,gsm,lte,wimax,apn,portadora,2g,3g,4g,5g,5ge,banda ancha,internet,tráfico,conexiones,sitios web,web,DSL,ADSL,infiniband,cableada,inalámbrica,bssid,ipv4,ipv6,dirección mac,ip,punto de acceso,dns,pasarela,puerta de enlace,wep,leap,wpa,wpa2,wpa3,dhcp,red compartida,red privada,red pública,vpn,openvpn,wireguard,fortinet,juniper,l2tp,pptp,sstp,ssh,iodine,ipsec,anyconnect,openconnect",
    "X-KDE-Keywords[eu]": "sareak,wifi,wi-fi,ethernet,mugikorra,cdma,gsm,lte,wimax,apn,eramailea,2g,3g,4g,5g,5ge,banda zabala,internet,trafikoa,konexioak,webguneak,web,DSL,infiniband,kable bidez,haririk gabekoa,bssid,ipv4,ipv6,mac helbidea,ip,sarbide-puntua,dns,atebidea,wep,leap,wpa,wpa2,wpa3,dhcp,sare partekatua,sare pribatua,sare publikoa,vpn,openvpn,wireguard,fortinet,juniper,l2tp,pptp, sstp,ssh,iodine,ipsec,anyconnect,openconnect",
    "X-KDE-Keywords[fi]": "verkot,wlan,wifi,ethernet,mobiili,cdma,gsm,lte,wimax,apn,operaattori,2g,3g,4g,5g,5ge,laajakaista,internet,liikenne,yhteydet,sivustot,verkko,WWW,DSL,infiniband,lankaverkko,langaton verkko,bssid,ipv4,ipv6,mac-osoite,ip,tukiasema,dns,yhdyskäytävä,wep,leap,wpa,wpa2,wpa3,dhcp,jaettu verkko,verkon jakaminen,yksityinen verkko,yksityisverkko,julkinen vekrko,vpn,openvpn,wireguard,fortinet,juniper,l2tp,pptp,sstp,ssh,iodine,ipsec,anyconnect,openconnect",
    "X-KDE-Keywords[fr]": "réseaux, wifi, wi-fi, ethernet, mobile, cdma, gsm, lte, wimax, apn, fréquence, 2G, 3G, 4G, 5G, 5GE, large bande, internet, trafic, connexions, sites Internet, Internet, DSL, infiniband, filaire, sans fil, BSSID, IPV4, IPV5, adresse MAC, IP, point d'accès, DNS, passerelle, WEP, saut, WPA, WPA2, WPA3, DHCP, réseau partagé, réseau privé, réseau public, VPN, Openvpn, wireguard, fortinet, juniper, l3TP, PPTP, SSTP, SSH, iodine, IPSEC, Anyconnect, Openconnect",
    "X-KDE-Keywords[hsb]": "networks,wifi,wi-fi,ethernet,mobile,cdma,gsm,lte,wimax,apn,carrier,2g,3g,4g,5g,5ge,broadband,internet,traffic,connections,websites,web,DSL,infiniband,wired,wireless,bssid,ipv4,ipv6,mac address,ip,access point,dns,gateway,wep,leap,wpa,wpa2,wpa3,dhcp,shared network,private network,public network,vpn,openvpn,wireguard,fortinet,juniper,l2tp,pptp,sstp,ssh,iodine,ipsec,anyconnect,openconnect,syć,zwisk",
    "X-KDE-Keywords[hu]": "hálózatok,wifi,wi-fi,ethernet,mobil,cdma,gsm,lte,wimax,apn,szolgáltató,2g,3g,4g,5g,5ge,szélessáv,internet,forgalom,kapcsolatok,weboldalak,web,DSL,infiniband,vezetékes,vezeték nélküli,bssid,ipv4,ipv6,mac cím,ip,hozzáférési pont,dns,átjáró,wep,leap,wpa,wpa2,wpa3,dhcp,megosztott hálózat,magánhálózat,nyilvános hálózat,vpn,openvpn,wireguard,fortinet,juniper,l2tp,pptp,sstp,ssh,iodine,ipsec,anyconnect,openconnect",
    "X-KDE-Keywords[ia]": "retes,wifi,wi-fi,ethernet,mobile,cdma,gsm,lte,wimax,apn,carrier,2g,3g,4g,5g,5ge,broadband,internet,traffico,connexiones,websites,web,DSL,infiniband,wired,wireless,bssid,ipv4,ipv6,mac address,ip,access point,dns,gateway,wep,leap,wpa,wpa2,wpa3,dhcp,rete compartite,rete private,rete public,vpn,openvpn,wireguard,fortinet,juniper,l2tp,pptp,sstp,ssh,iodine,ipsec,anyconnect,openconnect",
    "X-KDE-Keywords[it]": "reti,wifi,wi-fi,ethernet,mobile,cdma,gsm,lte,wimax,apn,carrier,2G,3G,4G,5G,5G,banda larga,internet,traffico,connessioni,siti web,web,dsl,infiniband,cablata,wireless,bssid,ipv4,ipv6,indirizzo mac,ip,punto di accesso,dns,Gateway,wep,leap,wpa,wpa2,wpa3,dhcp,rete condivisa,rete privata,rete pubblica,vpn,openvpn,wireguard,fortinet,juniper,l2tp,pptp,sstp,ssh,iodine,ipsec,anyconnect,openconnect",
    "X-KDE-Keywords[ko]": "networks,wifi,wi-fi,ethernet,mobile,cdma,gsm,lte,wimax,apn,carrier,2g,3g,4g,5g,5ge,broadband,internet,traffic,connections,websites,web,DSL,infiniband,wired,wireless,bssid,ipv4,ipv6,mac address,ip,access point,dns,gateway,wep,leap,wpa,wpa2,wpa3,dhcp,shared network,private network,public network,vpn,openvpn,wireguard,fortinet,juniper,l2tp,pptp,sstp,ssh,iodine,ipsec,anyconnect,openconnect,네트워크,와이파이,이더넷,모바일,통신사,인터넷,트래픽,연결,웹사이트,웹,무선,유선,게이트웨이,공유 네트워크,개인 네트워크",
    "X-KDE-Keywords[lt]": "tinklai,tinklas,belaidis,belaidžiai,belaidziai,bevielis,bevieliai,wifi,wi-fi,laidinis,eternetas,ethernet,mobilusis,cdma,gsm,lte,wimax,apn,prieigos taškas,prieigos taskas,viešosios prieigos taškas,viesosios prieigos taskas,teikėjas,teikejas,tiekėjas,tiekejas,2g,3g,4g,5g,5ge,plačiajuostis,placiajuostis,internetas,srautas,ryšiai,rysiai,svetainės,svetaines,internetinės svetainės,internetines svetaines,saitynas,žiniatinklis,ziniatinklis,DSL,infiniband,bssid,ipv4,ipv6,mac adresas,ip,ip adresas,dns,tinklų sietuvas,tinklu sietuvas,wep,leap,wpa,wpa2,wpa3,dhcp,bendrinamas tinklas,bendras tinklas,privatus tinklas,privatusis tinklas,viešas tinklas,viesas tinklas,viešasis tinklas,viesasis tinklas,vpn,openvpn,wireguard,fortinet,juniper,l2tp,pptp,sstp,ssh,iodine,ipsec,anyconnect,openconnect",
    "X-KDE-Keywords[nl]": "netwerken,wifi,wi-fi,ethernet,mobiel,cdma,gsm,lte,wimax,apn,carrier,2g,3g,4g,5g,5ge,broadband,internet,verkeer,verbindingen,websites,web,DSL,infiniband,bedraad,wireless,bssid,ipv4,ipv6,mac-adres,ip,access point,dns,gateway,wep,leap,wpa,wpa2,wpa3,dhcp,gedeeld netwerk,privé netwerk,publiek netwerk,vpn,openvpn,wireguard,fortinet,juniper,l2tp,pptp,sstp,ssh,iodine,ipsec,anyconnect,openconnect",
    "X-KDE-Keywords[nn]": "nettverk,wifi,wi-fi,ethernet,eternett,mobil,cdma,gsm,lte,wimax,apn,carrier,2g,3g,4g,5g,5ge,broadband,breiband,internett,trafikk,tilkoplingar,samband,nettsider,nettstader,web,veven,DSL,infiniband,kabla,trådlaust,wireless,bssid,ipv4,ipv6,mac-adresse,ip,tilgangspunkt,dns,gateway,wep,leap,wpa,wpa2,wpa3,dhcp,delt nettverk,privatnettverk,offentleg nettverk,jobbnettverk,vpn,openvpn,wireguard,fortinet,juniper,l2tp,pptp,sstp,ssh,iodine,ipsec,anyconnect,openconnect",
    "X-KDE-Keywords[pl]": "sieci,wifi,wi-fi,ethernet,komórkowe,cdma,gsm,lte,wimax,apn,dostawca,2g,3g,4g,5g,5ge,szerokopasmowe,internet,ruch,połączenia,strony sieciowe,sieć,DSL,infiniband,przewodowe,bezprzewodowe,bssid,ipv4,ipv6,adres mac,ip,punkt dostępowy,dns,brama,wep,leap,wpa,wpa2,wpa3,dhcp,współdzielona siec,prywatna sieć,publiczna sieć,vpn,openvpn,wireguard,fortinet,juniper,l2tp,pptp,sstp,ssh,iodine,ipsec,anyconnect,openconnect",
    "X-KDE-Keywords[pt]": "redes,wifi,wi-fi,ethernet,móvel,cdma,gsm,lte,wimax,apn,portadora,2g,3g,4g,5g,5ge,banda larga,internet,tráfego,ligações,páginas Web,web,DSL,infiniband,com fios,sem fios,bssid,ipv4,ipv6,endereço MAC,ip,ponto de acesso,dns,gateway,wep,leap,wpa,wpa2,wpa3,dhcp,rede partilhada,rede privada,rede pública,vpn,openvpn,wireguard,fortinet,juniper,l2tp,pptp,sstp,ssh,iodine,ipsec,anyconnect,openconnect",
    "X-KDE-Keywords[pt_BR]": "redes,wifi,wi-fi,ethernet,móvel,cdma,gsm,lte,wimax,apn,portadora,2g,3g,4g,5g,5ge,banda larga,internet,tráfego,conexões,sites,websites,web,DSL,infiniband,com fio,sem fio,wireless,bssid,ipv4,ipv6,endereço mac,ip,ponto de acesso,dns,gateway,wep,leap,wpa,wpa2,wpa3,dhcp,rede compartilhada,rede privada,rede pública,vpn,openvpn,wireguard,fortinet,juniper,l2tp,pptp,sstp,ssh,iodine,ipsec,anyconnect,openconnect",
    "X-KDE-Keywords[ru]": "networks,wifi,wi-fi,ethernet,mobile,cdma,gsm,lte,wimax,apn,carrier,2g,3g,4g,5g,5ge,broadband,internet,traffic,connections,websites,web,DSL,infiniband,wired,wireless,bssid,ipv4,ipv6,mac address,ip,access point,dns,gateway,wep,leap,wpa,wpa2,wpa3,dhcp,shared network,private network,public network,vpn,openvpn,wireguard,fortinet,juniper,l2tp,pptp,sstp,ssh,iodine,ipsec,anyconnect,openconnect,сети,интернет,подключения,веб-сайты,веб,проводное,беспроводное,точка доступа,шлюз,общая сеть,частная сеть",
    "X-KDE-Keywords[sk]": "siete,wifi,wi-fi,ethernet,mobilné,cdma,gsm,lte,wimax,apn, operátor,2g,3g,4g,5g,5ge,širokopásmové pripojenie,internet,prevádzka,pripojenie,webové stránky,web, DSL,infiniband,káblové,bezdrôtové,bssid,ipv4,ipv6,mac adresa,ip,prístupový bod, dns,brána,wep,leap,wpa,wpa2,wpa3,dhcp,zdieľaná sieť,súkromná sieť, verejná sieť,vpn,openvpn,wireguard,fortinet,juniper,l2tp,pptp,sstp,ssh, iodine,ipsec,anyconnect,openconnect",
    "X-KDE-Keywords[sl]": "omrežha,wifi,wi-fi,ethernet,mobilna,cdma,gsm,lte,wimax,apn,nosilec,2g,3g,4g,5g,5ge,široko pasovni,internet,promet,povezave,spletišča,splet,DSL,infiniband,ožičena,brezžična,bssid,ipv4,ipv6,mac naslov,ip,dostopna točka,dns,prehod,wep,leap,wpa,wpa2,wpa3,dhcp,skupna omrežja,zasebno omrežje,javno omrežje,vpn,openvpn,wireguard,fortinet,juniper,l2tp,pptp,sstp,ssh,iodine,ipsec,anyconnect,openconnect",
    "X-KDE-Keywords[sv]": "nätverk,wifi,wi-fi,ethernet,mobil,cdma,gsm,lte,wimax,apn,operatör,2g,3g,4g,5g,5ge,bredband,internet,trafik,anslutningar,webbplatser,webb,DSL,infiniband,trådbunden,trådlös,bssid,ipv4,ipv6,mac adress,ip,åtkomstpunkt,dns,förmedlingsnod,wep,leap,wpa,wpa2,wpa3,dhcp,delat nätverk,privat nätverk,öppet nätverk,vpn,openvpn,wireguard,fortinet,juniper,l2tp,pptp,sstp,ssh,iodine,ipsec,anyconnect,openconnect",
    "X-KDE-Keywords[uk]": "networks,wifi,wi-fi,ethernet,mobile,cdma,gsm,lte,wimax,apn,carrier,2g,3g,4g,5g,5ge,broadband,internet,traffic,connections,websites,web,DSL,infiniband,wired,wireless,bssid,ipv4,ipv6,mac address,ip,access point,dns,gateway,wep,leap,wpa,wpa2,wpa3,dhcp,shared network,private network,public network,vpn,openvpn,wireguard,fortinet,juniper,l2tp,pptp,sstp,ssh,iodine,ipsec,anyconnect,openconnect,мережі,вайфай,вай-фай,езернет,мобільна,сідіемей,цдма,жсм,лте,лтє,ваймакс,апн,носій,2ж,3ж,4ж,5ж,5жє,5же,широкосмугова,інтернет,трафік,з'єднання,вебсайти,веб,деесель,дсл,інфінібенд,дротова,бездротова,бссід,іпв4,іпв6,айпів4,айпів6,мак-адреса,айпі,іп,точка доступу,днс,шлюз,веп,леап,впа,впа2,впа3,діейчсіпі,дхсп,спільна мережа,приватна мережа,загальнодоступна мережа,публічна мережа,вепеен,впн,оупенвпн,опенвпан,вайргард,вірегвард,фортінет,джуніпер,л2тп,пптп,сстп,есесейч,ссх,іодіне,айпісек,іпсек,еніконект,оупенконект,опенконект",
    "X-KDE-Keywords[x-test]": "xxnetworksxx,xxwifixx,xxwi-fixx,xxethernetxx,xxmobilexx,xxcdmaxx,xxgsmxx,xxltexx,xxwimaxxx,xxapnxx,xxcarrierxx,xx2gxx,xx3gxx,xx4gxx,xx5gxx,xx5gexx,xxbroadbandxx,xxinternetxx,xxtrafficxx,xxconnectionsxx,xxwebsitesxx,xxwebxx,xxDSLxx,xxinfinibandxx,xxwiredxx,xxwirelessxx,xxbssidxx,xxipv4xx,xxipv6xx,xxmac addressxx,xxipxx,xxaccess pointxx,xxdnsxx,xxgatewayxx,xxwepxx,xxleapxx,xxwpaxx,xxwpa2xx,xxwpa3xx,xxdhcpxx,xxshared networkxx,xxprivate networkxx,xxpublic networkxx,xxvpnxx,xxopenvpnxx,xxwireguardxx,xxfortinetxx,xxjuniperxx,xxl2tpxx,xxpptpxx,xxsstpxx,xxsshxx,xxiodinexx,xxipsecxx,xxanyconnectxx,xxopenconnectxx",
    "X-KDE-Keywords[zh_CN]": "networks,wifi,wi-fi,ethernet,mobile,cdma,gsm,lte,wimax,apn,carrier,2g,3g,4g,5g,5ge,broadband,internet,traffic,connections,websites,web,DSL,infiniband,wired,wireless,bssid,ipv4,ipv6,mac address,ip,access point,dns,gateway,wep,leap,wpa,wpa2,wpa3,dhcp,shared network,private network,public network,vpn,openvpn,wireguard,fortinet,juniper,l2tp,pptp,sstp,ssh,iodine,ipsec,anyconnect,openconnect,网络,以太网,移动,全球互通微波访问,接入点名称,运营商,宽带,互联网,流量,连接,网站,有线,无线,mac 地址,接入点,网关,共享网络,私有网络,公共网络",
    "X-KDE-ParentApp": "kcontrol",
    "X-KDE-System-Settings-Parent-Category": "network",
    "X-KDE-Weight": 40
}
